-123.1920859915285,47.25465556920545,0
-123.190458306501,47.25464094665297,0
-123.1888655334147,47.25463211577304,0
-123.1884295064321,47.25462872441687,0
-123.1862946395792,47.25461512339911,0
-123.1862121472353,47.25461286091102,0
-123.1861089960658,47.25461672455017,0
-123.1860259751594,47.2546193221173,0
-123.1859529478549,47.25462878663456,0
-123.1858961611473,47.25463985034642,0
-123.1858211488033,47.25465638710488,0
-123.1857362303154,47.25468291544242,0
-123.1856803417432,47.25470435656456,0
-123.1856258299332,47.25472705694719,0
-123.1855460367126,47.25476005264964,0
-123.1854341325006,47.25481271637241,0
-123.1853309053386,47.25486395543328,0
-123.185245404257,47.25490584800963,0
-123.1851469992358,47.25496049811594,0
-123.1850468097067,47.25502021513,0
-123.1849081178654,47.25510465820567,0
-123.1847640761889,47.2552012820765,0
-123.1846224131841,47.25530623555356,0
-123.1845833627198,47.25533820703373,0
-123.1845456312022,47.25537249948692,0
-123.1845097130987,47.25541586126417,0
-123.1844812263697,47.25546311020461,0
-123.184458000721,47.25552264175744,0
-123.1844525034306,47.25557522364653,0
-123.1844542678471,47.25561114108712,0
-123.1844671248603,47.25566702446975,0
-123.1844748380762,47.2557015469228,0
-123.1844962651481,47.255743479138,0
-123.184571760772,47.25584509831029,0
-123.1847170172487,47.25601660234048,0
-123.184780499578,47.25610297812643,0
-123.184797603637,47.25614379921381,0
-123.1848140384432,47.25620359183221,0
-123.1848148986213,47.25625074812375,0
-123.1848083993078,47.25630261300062,0
-123.1847831493786,47.25636739155408,0
-123.1847654003959,47.25640235943648,0
-123.1847525131203,47.25643256959124,0
-123.1845221963307,47.25682157986927,0
-123.184469744065,47.25691211233782,0
-123.1844406698928,47.25696676063348,0
-123.1844213536919,47.25700805821539,0
-123.1844035182523,47.25706201914457,0
-123.1844011987644,47.25709992743976,0
-123.1844047368683,47.25714621263429,0
-123.1844113013625,47.25717899282976,0
-123.184431183227,47.25722338151117,0
-123.1844619096368,47.25727665697691,0
-123.1845280877667,47.25737224300453,0
-123.1845541798495,47.25740485561857,0
-123.1846899403501,47.25754954801679,0
-123.1848333141059,47.25768868324303,0
-123.1848741986255,47.25772719239784,0
-123.1849504000768,47.25779641104977,0
-123.1850225934049,47.25785805782409,0
-123.185069518137,47.25789284658505,0
-123.1851041919435,47.25791767962659,0
-123.1851436256421,47.25793796013482,0
-123.1851905052259,47.25795828253035,0
-123.1852267079774,47.25797099421386,0
-123.1852930061237,47.25799443035558,0
-123.1853845618371,47.2580199337372,0
-123.185466652595,47.25803523038735,0
-123.1855372110389,47.25804188801372,0
-123.1856296261175,47.2580532645915,0
-123.1857310063294,47.25806125147771,0
-123.1858110226843,47.25806470166337,0
-123.1859037672967,47.25806950226799,0
-123.1859625486895,47.25807004113574,0
-123.186018720805,47.2580684490607,0
-123.1860912602752,47.25806732294916,0
-123.1862170824234,47.2580649949598,0
-123.1863340553924,47.2580582448354,0
-123.1864479760592,47.2580513468944,0
-123.1864872629005,47.25804745527488,0
-123.1865372410568,47.25804473437933,0
-123.1867116243275,47.25803092409894,0
-123.1868010058055,47.25802324254665,0
-123.1868578576652,47.25801936577278,0
-123.1868975748364,47.25801504711963,0
-123.1869868866316,47.25800969971362,0
-123.18708476791,47.2580052388422,0
-123.1872574846494,47.25800216155193,0
-123.1873362180837,47.25800326747029,0
-123.1874508556468,47.25800667528186,0
-123.1875508989409,47.25801518790168,0
-123.1876545229233,47.2580248821937,0
-123.187736998972,47.25803341062253,0
-123.187818170265,47.25804340626578,0
-123.1878972804802,47.25805237737513,0
-123.1880431062151,47.25807101992372,0
-123.1881784644546,47.2580910974048,0
-123.1882196069459,47.25809506521212,0
-123.1882721583881,47.25810253313654,0
-123.1883432223563,47.25811255429019,0
-123.1884172128087,47.25811885162387,0
-123.1884775975988,47.25812714627914,0
-123.1885935476686,47.25813812329362,0
-123.1887212834447,47.25814235519165,0
-123.1888704180747,47.25814277826441,0
-123.1890140917287,47.2581374666565,0
-123.1892028914931,47.25813309711583,0
-123.1892373503753,47.2581354355759,0
-123.1896121581479,47.25813101524503,0
-123.1897178662466,47.2581270793014,0
-123.1897902281852,47.25812433651782,0
-123.1898501036332,47.25812596507776,0
-123.1899278643988,47.25811954029746,0
-123.1900381846698,47.25811156655601,0
-123.1901877397674,47.2580991473411,0
-123.1903145010877,47.25808220097632,0
-123.1904374782732,47.25806325709055,0
-123.1905802704039,47.25803005012126,0
-123.1907132910945,47.2579926093828,0
-123.1908416925872,47.25794490472321,0
-123.1909356071694,47.25789431353854,0
-123.1910019572059,47.25784165969076,0
-123.1910570090081,47.25778626037029,0
-123.1911154986192,47.25770731509824,0
-123.1911508195892,47.25764469721553,0
-123.1911842645598,47.2575678552271,0
-123.191202352596,47.2575029824846,0
-123.1912146951085,47.2574312065796,0
-123.1912172794635,47.2573557878022,0
-123.1912026744938,47.25727817732191,0
-123.191180918602,47.2572159130461,0
-123.1911401896232,47.25713341506167,0
-123.1911055805935,47.25707604089409,0
-123.1910553035984,47.25700751899394,0
-123.1910003402,47.25695018609075,0
-123.190939894639,47.25690018101644,0
-123.1908812249101,47.25685888855116,0
-123.1908081879853,47.25681650498475,0
-123.190741364573,47.25678286209397,0
-123.190665852019,47.25675009186192,0
-123.1905701881179,47.25671847974589,0
-123.1904808126596,47.25669652599233,0
-123.1903732289325,47.25667846049282,0
-123.1902699978638,47.25666654640774,0
-123.1901703468751,47.25666188781292,0
-123.19000643754,47.25666653868387,0
-123.1899605036859,47.25667086289468,0
-123.1897424430576,47.25670945887773,0
-123.1895679851954,47.25674139207701,0
-123.1893806472536,47.25678419637791,0
-123.1891642661306,47.25684250623604,0
-123.1890487709454,47.25687984794094,0
-123.1887781443509,47.25697863837176,0
-123.1886879667958,47.25701254944213,0
-123.1885761767968,47.25704406208629,0
-123.1884140387545,47.25709038867801,0
-123.1883514124521,47.25710301442173,0
-123.1882013653325,47.25713618691294,0
-123.1880233303879,47.25717005943971,0
-123.1878631013644,47.257186227204,0
-123.1877326089419,47.257195151733,0
-123.1876770360758,47.25719569966907,0
-123.1875833612962,47.2572008690981,0
-123.1874829799469,47.25719110900343,0
-123.1867220768317,47.25708146923098,0
-123.1866194535771,47.25706444533289,0
-123.1864898016709,47.25703558022285,0
-123.1864052992892,47.25700424393651,0
-123.1863557602006,47.25696342985579,0
-123.1863151640564,47.25691561961375,0
-123.1862823554252,47.25685807464702,0
-123.1862745116625,47.25680174886161,0
-123.1862713623322,47.25674274053304,0
-123.1862796999618,47.2566732914734,0
-123.1862926026318,47.25662179302049,0
-123.1863437536989,47.25650607579013,0
-123.1864012664602,47.2563968071748,0
-123.1864353620356,47.25634798392283,0
-123.1864793534725,47.25630386758256,0
-123.1865157911479,47.25627874634517,0
-123.1865481587212,47.25626123329515,0
-123.1865835451469,47.25624290088891,0
-123.1866458250495,47.25622181779323,0
-123.1867547113197,47.25619150833788,0
-123.187330681223,47.25605552528098,0
-123.187627567584,47.25598685808106,0
-123.1878129109347,47.25594127153503,0
-123.1879966528326,47.25589904047316,0
-123.1883114811681,47.25582938962073,0
-123.188409205318,47.2558132001999,0
-123.1885510967745,47.25579162229192,0
-123.1886632575541,47.25578514382082,0
-123.1887360874779,47.25578084170405,0
-123.1887981803944,47.25578337541806,0
-123.1888725350665,47.25579057016574,0
-123.1889408763882,47.25580088694292,0
-123.1891083611594,47.25584451531461,0
-123.1892822039464,47.25590293194663,0
-123.1895346422022,47.25599237408967,0
-123.1897043494103,47.25604826520481,0
-123.1898695553545,47.2561032009064,0
-123.1900039826593,47.25615149341871,0
-123.1901242784508,47.25619220937899,0
-123.1902892422512,47.25624988200434,0
-123.190413165462,47.25629267584081,0
-123.19053097945,47.25633292092054,0
-123.1906958422644,47.25638971244833,0
-123.1909616651739,47.25648319632037,0
-123.1911403834994,47.25655051387327,0
-123.1914579591819,47.2566877896101,0
-123.1915781198886,47.25675622221921,0
-123.1916356874204,47.2567924658152,0
-123.1917022701132,47.2568397255659,0
-123.1917745109763,47.25690607987867,0
-123.191821857439,47.25695733765951,0
-123.1918983331817,47.25704933692337,0
-123.1919793280184,47.25715825621578,0
-123.1920491733125,47.25725692933116,0
-123.1921148516181,47.25733849120083,0
-123.1921585257575,47.25739203710216,0
-123.1922451385844,47.25747229281212,0
-123.1923336429078,47.25754435184714,0
-123.1924284643507,47.25761109031349,0
-123.1925295201243,47.25767691893568,0
-123.1926010558151,47.25771911708767,0
-123.1926862238077,47.25776297717182,0
-123.1927766297732,47.25780306990922,0
-123.1928583585479,47.25783344839146,0
-123.1929516872767,47.25786024829772,0
-123.1930546937214,47.25788661274834,0
-123.1931256563518,47.25789781089224,0
-123.1932331430263,47.25791223674706,0
-123.1933210394473,47.25791141047711,0
-123.1934288856127,47.25790486938985,0
-123.1935104425557,47.25789051838624,0
-123.1935841582558,47.25786816544685,0
-123.1936352526265,47.25784683287097,0
-123.1936728932124,47.25782254586856,0
-123.1937014369241,47.25779551432341,0
-123.1937303993846,47.25776040843408,0
-123.1937482985737,47.25771699615029,0
-123.1937551151807,47.25767853923498,0
-123.1937535469136,47.25765512800487,0
-123.1937462640347,47.25760695835464,0
-123.1937188261644,47.25755136570195,0
-123.1936830590887,47.25749435760292,0
-123.1936245777824,47.2574014966866,0
-123.1935205942119,47.25724526337448,0
-123.1931410101011,47.25666350303982,0
-123.1929068164928,47.2563075358068,0
-123.192890390383,47.25627345848344,0
-123.1928751459274,47.25622008188654,0
-123.1928733426316,47.25618316104918,0
-123.19288024078,47.2561569829966,0
-123.1929070143253,47.25610797257635,0
-123.1929447006379,47.25607610534967,0
-123.1929886942267,47.25604948755581,0
-123.1930263269517,47.25603133970788,0
-123.193124203226,47.25599268404849,0
-123.1932127863643,47.25596500074656,0
-123.1933148752332,47.25594341272189,0
-123.1934067826892,47.2559286665477,0
-123.1934917457413,47.25591987928865,0
-123.1938795280332,47.25591167514874,0
-123.1950403153876,47.25591459943768,0
-123.1962939131684,47.25591603407388,0
-123.1968862574558,47.2559182671631,0
-123.1978633790264,47.25592577452485,0
-123.1982308755615,47.25592698605748,0
-123.1982896281058,47.25591579696854,0
-123.1983378922345,47.25589132568263,0
-123.1983828764705,47.25586228107797,0
-123.1984039849414,47.25582235989056,0
-123.1984138266387,47.25578056241915,0
-123.1984037365909,47.25574627456299,0
-123.1983777511746,47.25571143042881,0
-123.1983345764208,47.25567066785476,0
-123.1982224204676,47.25557154062342,0
-123.1981111233381,47.25546706175993,0
-123.1980649597702,47.25541138093096,0
-123.1980446952253,47.25535721326396,0
-123.1980444784928,47.25532744642258,0
-123.1980617332389,47.25528289672409,0
-123.1980846023483,47.25524175947856,0
-123.1981256292347,47.25520634183805,0
-123.1981827130746,47.2551726904822,0
-123.1982661595231,47.25514331361578,0
-123.1983546639698,47.25513261143029,0
-123.1984998312371,47.25512583739879,0
-123.1986141422017,47.25512022627668,0
-123.1987428590873,47.25509938962094,0
-123.1988523699828,47.2550594383925,0
-123.1989436418264,47.25500491348953,0
-123.199004406443,47.25493999320099,0
-123.1990407359924,47.25488328056027,0
-123.1990528471622,47.25484354685419,0
-123.1990636111501,47.25479435028809,0
-123.1990678458748,47.25475148366634,0
-123.1990653660112,47.25467560850424,0
-123.1990581585098,47.25462580921843,0
-123.1990279748781,47.25457443942461,0
-123.1989866070649,47.25452067185419,0
-123.1989519079541,47.25449153888352,0
-123.1988990035552,47.25445975334513,0
-123.1988484058045,47.25443145433156,0
-123.1987732305694,47.25440314386259,0
-123.1987193474764,47.25438860713851,0
-123.1986437913834,47.25437394365022,0
-123.1985903923308,47.25436456976652,0
-123.1985428902107,47.25436003753099,0
-123.1984599781176,47.2543631422884,0
-123.1983597710644,47.25436850595311,0
-123.1982902084355,47.25438057535101,0
-123.1982201529073,47.25439671297115,0
-123.1981362884602,47.25442823033183,0
-123.1980619299193,47.25446172733328,0
-123.1979842000444,47.25449866224101,0
-123.1979167711043,47.25454343185447,0
-123.1978459705623,47.25459298138619,0
-123.1977773392559,47.25462271015379,0
-123.1977094744666,47.25464853569919,0
-123.1976468875925,47.25466688699882,0
-123.1975712450003,47.25467846313082,0
-123.1974794710629,47.25468581929411,0
-123.1973072124135,47.2546862726049,0
-123.1929195140685,47.2546568684137,0
-123.1920859915285,47.25465556920545,0

